-------------------------------------------------------------------------------
Test set: coreservices.AppTest
-------------------------------------------------------------------------------
Tests run: 4, Failures: 0, Errors: 0, Skipped: 0, Time elapsed: 0.015 s - in coreservices.AppTest
