-------------------------------------------------------------------------------
Test set: coreservices.reportoutput.CSVReportTest
-------------------------------------------------------------------------------
Tests run: 8, Failures: 0, Errors: 0, Skipped: 0, Time elapsed: 0.016 s - in coreservices.reportoutput.CSVReportTest
