/Users/pawelsynowiec/IdeaProjects/bootcamp/src/main/java/coreservices/supportedfileextensions/package-info.java
/Users/pawelsynowiec/IdeaProjects/bootcamp/src/main/java/coreservices/Database.java
/Users/pawelsynowiec/IdeaProjects/bootcamp/src/main/java/coreservices/reportoutput/Report.java
/Users/pawelsynowiec/IdeaProjects/bootcamp/src/main/java/coreservices/supportedfileextensions/XMLExtension.java
/Users/pawelsynowiec/IdeaProjects/bootcamp/src/main/java/coreservices/Order.java
/Users/pawelsynowiec/IdeaProjects/bootcamp/src/main/java/coreservices/supportedfileextensions/Extension.java
/Users/pawelsynowiec/IdeaProjects/bootcamp/src/main/java/coreservices/reportoutput/OnScreenReport.java
/Users/pawelsynowiec/IdeaProjects/bootcamp/src/main/java/coreservices/package-info.java
/Users/pawelsynowiec/IdeaProjects/bootcamp/src/main/java/coreservices/FileProcessor.java
/Users/pawelsynowiec/IdeaProjects/bootcamp/src/main/java/coreservices/reportoutput/package-info.java
/Users/pawelsynowiec/IdeaProjects/bootcamp/src/main/java/coreservices/supportedfileextensions/CSVExtension.java
/Users/pawelsynowiec/IdeaProjects/bootcamp/src/main/java/coreservices/reportoutput/CSVReport.java
/Users/pawelsynowiec/IdeaProjects/bootcamp/src/main/java/coreservices/App.java
